﻿# We can use these modifiers for adding specific hairstyles and beards to historical and vanity characters

hairstyles_scripted_characters = {

	usage = game
	selection_behavior = weighted_random

	male_hair_western_01 = { # Bowl cut
		dna_modifiers = {
			accessory = {
				mode = add
				gene = hairstyles
				template = scripted_character_hairstyles_01
				value = 0.0 # For the randomness to work correctly
			}
		}   
		weight = {
			base = 0
		}
	}

	male_hair_western_02= { # Medium/long wavy
		dna_modifiers = {
			accessory = {
				mode = add
				gene = hairstyles
				template = scripted_character_hairstyles_01
				value = 0.04 # For the randomness to work correctly
			}
		}   
		weight = {
			base = 0
			modifier = {
				add = 200
				exists = character:48 # Rocair Vernid
				this = character:48 # Rocair Vernid
			}
			modifier = {
				add = 200
				exists = character:106 # Kolvan Karnid
				this = character:106 # Kolvan Karnid
			}
			modifier = {
				add = 200
				exists = character:554 # Beltram Ventis
				this = character:554 # Beltram Ventis
			}
			modifier = {
				add = 200
				exists = character:harascilde_0026 # Caradan "the Shield of the West"
				this = character:harascilde_0026 # Caradan "the Shield of the West"
			}
		}
	}

	male_hair_western_03 = { # Buzz cut
		dna_modifiers = {
			accessory = {
				mode = add
				gene = hairstyles
				template = scripted_character_hairstyles_01
				value = 0.06 # For the randomness to work correctly
			}
		}   
		weight = {
			base = 0
			modifier = {
				add = 200
				exists = character:114 # Petre Tiferben
				this = character:114 # Petre Tiferben
			}
		}
	}

	male_hair_western_04 = { # Fade, shaved sides
		dna_modifiers = {
			accessory = {
				mode = add
				gene = hairstyles
				template = scripted_character_hairstyles_01
				value = 0.08 # For the randomness to work correctly
			}
		}   
		weight = {
			base = 0
			modifier = {
				add = 200
				exists = character:49 # Daghr Askeling
				this = character:49 # Daghr Askeling
			}
			modifier = {
				add = 200
				exists = character:94 # Urvik Ebonfrost
				this = character:94 # Urvik Ebonfrost
			}
		}
	}

	male_hair_western_05 = { # Medium/long wavy with fringe
		dna_modifiers = {
			accessory = {
				mode = add
				gene = hairstyles
				template = scripted_character_hairstyles_01
				value = 0.10 # For the randomness to work correctly
			}
		}   
		weight = {
			base = 0
		}
	}

	male_hair_western_06 = { # Messy bowl
		dna_modifiers = {
			accessory = {
				mode = add
				gene = hairstyles
				template = scripted_character_hairstyles_01
				value = 0.13 # For the randomness to work correctly
			}
		}   
		weight = {
			base = 0
			modifier = {
				add = 200
				exists = character:62 # Rylen Adshaw
				this = character:62 # Rylen Adshaw
			}
		}
	}

	male_hair_western_07 = { # Long side part
		dna_modifiers = {
			accessory = {
				mode = add
				gene = hairstyles
				template = scripted_character_hairstyles_01
				value = 0.15 # For the randomness to work correctly
			}
		}   
		weight = {
			base = 0
			modifier = {
				add = 200
				exists = character:silmuna_0001 # Marion Silmuna
				this = character:silmuna_0001 # Marion Silmuna
			}
			modifier = {
				add = 200
				exists = character:17 # Eborian Goldwaters
				this = character:17 # Eborian Goldwaters
			}
			modifier = {
				add = 200
				exists = character:21 # Urion 'Starsworn'
				this = character:21 # Urion 'Starsworn'
			}
			modifier = {
				add = 200
				exists = character:26 # Finnic síl Vis
				this = character:26 # Finnic síl Vis
			}
			modifier = {
				add = 200
				exists = character:60 # Ianren 'the Rider'
				this = character:60 # Ianren 'the Rider'
			}
			modifier = {
				add = 200
				exists = character:79 # Garrec Ebonfrost
				this = character:79 # Garrec Ebonfrost
			}
			modifier = {
				add = 200
				exists = character:121 # Henric Verteben
				this = character:121 # Henric Verteben
			}
			modifier = {
				add = 200
				exists = character:518 # Varilor Bluetongue
				this = character:518 # Varilor Bluetongue
			}
		}
	}

	male_hair_western_08 = { # Medium/long center part
		dna_modifiers = {
			accessory = {
				mode = add
				gene = hairstyles
				template = scripted_character_hairstyles_01
				value = 0.18 # For the randomness to work correctly
			}
		}   
		weight = {
			base = 0
			modifier = {
				add = 200
				exists = character:18 # Garion 'the Wise'
				this = character:18 # Garion 'the Wise'
			}
			modifier = {
				add = 200
				exists = character:98 # Toman 'Slothsword'
				this = character:98 # Toman 'Slothsword'
			}
			modifier = {
				add = 200
				exists = character:583 # Roen Arthelis
				this = character:583 # Roen Arthelis
			}
		}
	}

	male_hair_western_09 = { # Short clumpy
		dna_modifiers = {
			accessory = {
				mode = add
				gene = hairstyles
				template = scripted_character_hairstyles_01
				value = 0.2 # For the randomness to work correctly
			}
		}   
		weight = {
			base = 0
			modifier = {
				add = 200
				exists = character:43 # Eustace síl Uelaire
				this = character:43 # Eustace síl Uelaire
			}
			modifier = {
				add = 200
				exists = character:76 # Martin Farran
				this = character:76 # Martin Farran
			}
			modifier = {
				add = 200
				exists = character:103 # Wynsten Edharlain
				this = character:103 # Wynsten Edharlain
			}
			modifier = {
				add = 200
				exists = character:162 # Jacques síl Casthíl
				this = character:162 # Jacques síl Casthíl
			}
			modifier = {
				add = 200
				exists = character:20000 # Talan Aubergentis
				this = character:20000 # Talan Aubergentis
			}
			modifier = {
				add = 200
				exists = character:20002 # Riualtr Aubergentis
				this = character:20002 # Riualtr Aubergentis
			}
		}
	}

	male_hair_western_10 = { # Tonsure
		dna_modifiers = {
			accessory = {
				mode = add
				gene = hairstyles
				template = scripted_character_hairstyles_01
				value = 0.22 # For the randomness to work correctly
			}
		}   
		weight = {
			base = 0
		}
	}

	male_hair_mena_01 = { # Short curly
		dna_modifiers = {
			accessory = {
				mode = add
				gene = hairstyles
				template = scripted_character_hairstyles_01
				value = 0.24 # For the randomness to work correctly
			}
		}   
		weight = {
			base = 0
			modifier = {
				add = 200
				exists = character:dameris_0014 # Crege Dameris
				this = character:dameris_0014 # Crege Dameris
			}
			modifier = {
				add = 200
				exists = character:120 # Vasile síl Fiachlar
				this = character:120 # Vasile síl Fiachlar
			}
			modifier = {
				add = 200
				exists = character:123 # Devan
				this = character:123 # Devan
			}
			modifier = {
				add = 200
				exists = character:20005 # Ivran
				this = character:20005 # Ivran
			}
		}
	}

	male_hair_mena_02 = { # Well kempt wavy
		dna_modifiers = {
			accessory = {
				mode = add
				gene = hairstyles
				template = scripted_character_hairstyles_01
				value = 0.27 # For the randomness to work correctly
			}
		}   
		weight = {
			base = 0
			modifier = {
				add = 200
				exists = character:22 # Calasandur 'the Magnificent'
				this = character:22 # Calasandur 'the Magnificent'
			}
			modifier = {
				add = 200
				exists = character:20001 # Calas Aubergentis
				this = character:20001 # Calas Aubergentis
			}
		}
	}

	male_hair_mena_03 = { # Curly ball
		dna_modifiers = {
			accessory = {
				mode = add
				gene = hairstyles
				template = scripted_character_hairstyles_01
				value = 0.30 # For the randomness to work correctly
			}
		}   
		weight = {
			base = 0
		}
	}

	male_hair_mena_04 = { # Medium curly
		dna_modifiers = {
			accessory = {
				mode = add
				gene = hairstyles
				template = scripted_character_hairstyles_01
				value = 0.32 # For the randomness to work correctly
			}
		}   
		weight = {
			base = 0
		}
	}

	male_hair_byzantine_01 = { # Curled bowl
		dna_modifiers = {
			accessory = {
				mode = add
				gene = hairstyles
				template = scripted_character_hairstyles_01
				value = 0.35 # For the randomness to work correctly
			}
		}   
		weight = {
			base = 0
		}
	}

	male_hair_byzantine_02 = { # Roman style
		dna_modifiers = {
			accessory = {
				mode = add
				gene = hairstyles
				template = scripted_character_hairstyles_01
				value = 0.38 # For the randomness to work correctly
			}
		}   
		weight = {
			base = 0
			modifier = {
				add = 200
				exists = character:47 # Carwick Iochand
				this = character:47 # Carwick Iochand
			}
			modifier = {
				add = 200
				exists = character:169 # Diaco Kobali
				this = character:169 # Diaco Kobali
			}
		}
	}

	male_hair_sub_saharan_01 = { # Short african
		dna_modifiers = {
			accessory = {
				mode = add
				gene = hairstyles
				template = scripted_character_hairstyles_01
				value = 0.41 # For the randomness to work correctly
			}
		}   
		weight = {
			base = 0
		}
	}

	male_hair_sub_saharan_02 = { # Small afro
		dna_modifiers = {
			accessory = {
				mode = add
				gene = hairstyles
				template = scripted_character_hairstyles_01
				value = 0.43 # For the randomness to work correctly
			}
		}   
		weight = {
			base = 0
			modifier = {
				add = 200
				exists = character:96 # Daynan Sarfort
				this = character:96 # Daynan Sarfort
			}
		}
	}

	male_hair_sub_saharan_03 = { # Short dreads
		dna_modifiers = {
			accessory = {
				mode = add
				gene = hairstyles
				template = scripted_character_hairstyles_01
				value = 0.46 # For the randomness to work correctly
			}
		}   
		weight = {
			base = 0
		}
	}

	male_hair_rtt_01 = { # Scottish Mullet
		dna_modifiers = {
			accessory = {
				mode = add
				gene = hairstyles
				template = scripted_character_hairstyles_01
				value = 0.49 # For the randomness to work correctly
			}
		}   
		weight = {
			base = 0
			modifier = {
				add = 200
				exists = character:300002 #Skali Sidaett
				this = character:300002 #Skali Sidaett 
			}
		}
	}

	male_hair_rtt_02 = { # Big page boy
		dna_modifiers = {
			accessory = {
				mode = add
				gene = hairstyles
				template = scripted_character_hairstyles_01
				value = 0.52 # For the randomness to work correctly
			}
		}   
		weight = {
			base = 0
			modifier = {
				add = 200
				exists = character:97 # Sybille Locke
				this = character:97 # Sybille Locke
			}
		}
	}

	male_hair_indian_01 = { # Short Pompadour
		dna_modifiers = {
			accessory = {
				mode = add
				gene = hairstyles
				template = scripted_character_hairstyles_01
				value = 0.54 # For the randomness to work correctly
			}
		}   
		weight = {
			base = 0
			modifier = {
				add = 200
				exists = character:rewantis_0025 # Jaspar Rewantis
				this = character:rewantis_0025 # Jaspar Rewantis
			}
			modifier = {
				add = 200
				exists = character:sun_elvish0005 # Denarion Denarzuir
				this = character:sun_elvish0005 # Denarion Denarzuir
			}
		}
	}

	male_hair_indian_02 = { # Pompadour with curled neck hair
		dna_modifiers = {
			accessory = {
				mode = add
				gene = hairstyles
				template = scripted_character_hairstyles_01
				value = 0.57 # For the randomness to work correctly
			}
		}   
		weight = {
			base = 0
			modifier = {
				add = 200
				exists = character:sun_elvish0001 # Jaher
				this = character:sun_elvish0001 # Jaher
			}
		}
	}

	male_hair_indian_03 = { # High man bun
		dna_modifiers = {
			accessory = {
				mode = add
				gene = hairstyles
				template = scripted_character_hairstyles_01
				value = 0.60 # For the randomness to work correctly
			}
		}   
		weight = {
			base = 0
		}
	}

	male_hair_northern_01 = { # Long wavy metal hair
		dna_modifiers = {
			accessory = {
				mode = add
				gene = hairstyles
				template = scripted_character_hairstyles_01
				value = 0.62 # For the randomness to work correctly
			}
		}   
		weight = {
			base = 0
			modifier = {
				add = 200
				exists = character:61 # Maldorian 'the Navigator'
				this = character:61 # Maldorian 'the Navigator'
			}
			modifier = {
				add = 200
				exists = character:555 # Alvarion Duskwatcher
				this = character:555 # Alvarion Duskwatcher
			}
		}
	}

	male_hair_northern_02 = { # Long partly let out with ponytail
		dna_modifiers = {
			accessory = {
				mode = add
				gene = hairstyles
				template = scripted_character_hairstyles_01
				value = 0.65 # For the randomness to work correctly
			}
		}   
		weight = {
			base = 0
			modifier = {
				add = 200
				exists = character:20 # Munas 'Moonsinger'
				this = character:20 # Munas 'Moonsinger'
			}
			modifier = {
				add = 200
				exists = character:41 # Bolgrun Redstone
				this = character:41 # Bolgrun Redstone
			}
			modifier = {
				add = 200
				exists = character:gawe_0027 # Alenn Gawe 'the Elder'
				this = character:gawe_0027 # Alenn Gawe 'the Elder'
			}
			modifier = {
				add = 200
				exists = character:75 # Ibenion ta'Luneteín
				this = character:75 # Ibenion ta'Luneteín
			}
		}
	}

	male_hair_northern_03 = { # Norman style short with shaved back and sides
		dna_modifiers = {
			accessory = {
				mode = add
				gene = hairstyles
				template = scripted_character_hairstyles_01
				value = 0.68 # For the randomness to work correctly
			}
		}   
		weight = {
			base = 0
		}
	}

	male_hair_steppe_01 = { # Looped twin braids, forehead patch
		dna_modifiers = {
			accessory = {
				mode = add
				gene = hairstyles
				template = scripted_character_hairstyles_01
				value = 0.71 # For the randomness to work correctly
			}
		}   
		weight = {
			base = 0
		}
	}

	male_hair_steppe_02 = { # Long twin tails, forward combed mohawk
		dna_modifiers = {
			accessory = {
				mode = add
				gene = hairstyles
				template = scripted_character_hairstyles_01
				value = 0.74 # For the randomness to work correctly
			}
		}   
		weight = {
			base = 0
		}
	}

	male_hair_baby = { # baby hair
		dna_modifiers = {
			accessory = {
				mode = add
				gene = hairstyles
				template = western_baby_hairstyles
				range = { 0 1 } # For the randomness to work correctly
			}
		}   
		weight = {
			base = 0
		}
	}

	male_hair_fp1_01 = { # Medium short center part
		dna_modifiers = {
			accessory = {
				mode = add
				gene = hairstyles
				template = scripted_character_hairstyles_01
				value = 0.77 # For the randomness to work correctly
			}
		}   
		weight = {
			base = 0
			modifier = {
				add = 200
				exists = character:160 # Maugun Of Ording
				this = character:160 # Maugun Of Ording
			}
			modifier = {
				add = 200
				exists = character:579 # Petran Balgard
				this = character:579 # Petran Balgard
			}
			modifier = {
				add = 200
				exists = character:581 # Jordan Balgard
				this = character:581 # Jordan Balgard
			}
		}
	}

	male_hair_fp1_02 = { # Center part ponytail
		dna_modifiers = {
			accessory = {
				mode = add
				gene = hairstyles
				template = scripted_character_hairstyles_01
				value = 0.79 # For the randomness to work correctly
			}
		}   
		weight = {
			base = 0
		}
	}

	male_hair_fp1_03 = { # Mohawk ish
		dna_modifiers = {
			accessory = {
				mode = add
				gene = hairstyles
				template = scripted_character_hairstyles_01
				value = 0.82 # For the randomness to work correctly
			}
		}   
		weight = {
			base = 0
		}
	}

	male_hair_fp1_04 = { # Medium short pulled back
		dna_modifiers = {
			accessory = {
				mode = add
				gene = hairstyles
				template = scripted_character_hairstyles_01
				value = 0.84 # For the randomness to work correctly
			}
		}   
		weight = {
			base = 0
		}
	}

	male_hair_fp1_05 = { # Long fine
		dna_modifiers = {
			accessory = {
				mode = add
				gene = hairstyles
				template = scripted_character_hairstyles_01
				value = 0.87 # For the randomness to work correctly
			}
		}   
		weight = {
			base = 0
		}
	}

	male_hair_fp1_06 = { # Medium long side part well kempt
		dna_modifiers = {
			accessory = {
				mode = add
				gene = hairstyles
				template = scripted_character_hairstyles_01
				value = 0.89 # For the randomness to work correctly
			}
		}   
		weight = {
			base = 0
		}
	}

	male_hair_fp1_07 = { # Medium long side part thick
		dna_modifiers = {
			accessory = {
				mode = add
				gene = hairstyles
				template = scripted_character_hairstyles_01
				value = 0.93 # For the randomness to work correctly
			}
		}   
		weight = {
			base = 0
			modifier = {
				add = 200
				exists = character:300000
				this = character:300000
			}
		}
	}

	male_hair_fp1_08 = { # Long straight with bangs as braids
		dna_modifiers = {
			accessory = {
				mode = add
				gene = hairstyles
				template = scripted_character_hairstyles_01
				value = 0.96 # For the randomness to work correctly
			}
		}   
		weight = {
			base = 0
			modifier = {
				add = 200
				exists = character:300003 #Einar
				this = character:300003 #Einar
			}
		}
	}

	male_hair_fp1_09 = { # Single braid in back, shaved sides
		dna_modifiers = {
			accessory = {
				mode = add
				gene = hairstyles
				template = scripted_character_hairstyles_01
				value = 0.99 # For the randomness to work correctly
			}
		}   
		weight = {
			base = 0
		}
	}



##############################################################################################################################################
##############################################################################################################################################
#									#
# 			Female Hairstyles		#
#									#
##############################################################################################################################################
##############################################################################################################################################




	female_hair_western_01 = { # Crown braid
		dna_modifiers = {
			accessory = {
				mode = add
				gene = hairstyles
				template = scripted_character_hairstyles_01
				value = 0.0 # For the randomness to work correctly
			}
		}   
		weight = {
			base = 0
			modifier = {
				add = 200
				exists = character:154 # Grethe síl Aelvar
				this = character:154 # Grethe síl Aelvar
			}
			modifier = {
				add = 200
				exists = character:kyliande_0001 # Morganne sil Kyliande
				this = character:kyliande_0001 # Morganne sil Kyliande
			}
		}
	}

	female_hair_western_02= { # Long wavy
		dna_modifiers = {
			accessory = {
				mode = add
				gene = hairstyles
				template = scripted_character_hairstyles_01
				value = 0.04 # For the randomness to work correctly
			}
		}   
		weight = {
			base = 0
			modifier = {
				add = 200
				exists = character:12 # Alise síl na Loop
				this = character:12 # Alise síl na Loop
			}
			modifier = {
				add = 200
				exists = character:15 # Ioriel Siloriel
				this = character:15 # Ioriel Siloriel
			}
		}
	}

	female_hair_western_03 = { # Rolled braid
		dna_modifiers = {
			accessory = {
				mode = add
				gene = hairstyles
				template = scripted_character_hairstyles_01
				value = 0.08 # For the randomness to work correctly
			}
		}   
		weight = {
			base = 0
		}
	}

	female_hair_western_04 = { # Twin braids wavy
		dna_modifiers = {
			accessory = {
				mode = add
				gene = hairstyles
				template = scripted_character_hairstyles_01
				value = 0.10 # For the randomness to work correctly
			}
		}   
		weight = {
			base = 0
			modifier = {
				add = 200
				exists = character:dameris_0012 # Auci Dameris
				this = character:dameris_0012 # Auci Dameris
			}
		}
	}

	female_hair_western_05 = { # Behind head wavy
		dna_modifiers = {
			accessory = {
				mode = add
				gene = hairstyles
				template = scripted_character_hairstyles_01
				value = 0.13 # For the randomness to work correctly
			}
		}   
		weight = {
			base = 0
			modifier = {
				add = 200
				exists = character:16 # Narawen 'the Wanderer'
				this = character:16 # Narawen 'the Wanderer'
			}
			modifier = {
				add = 200
				exists = character:122 # Edith 'the Smith'
				this = character:122 # Edith 'the Smith'
			}
		}
	}

	female_hair_western_06 = { # Tight updo with barbette
		dna_modifiers = {
			accessory = {
				mode = add
				gene = hairstyles
				template = scripted_character_hairstyles_01
				value = 0.15 # For the randomness to work correctly
			}
		}   
		weight = {
			base = 0
		}
	}

	female_hair_western_07 = { # Twin tails with ribbons
		dna_modifiers = {
			accessory = {
				mode = add
				gene = hairstyles
				template = scripted_character_hairstyles_01
				value = 0.18 # For the randomness to work correctly
			}
		}   
		weight = {
			base = 0
			modifier = {
				add = 200
				exists = character:20004 # Susanne Aubergentis
				this = character:20004 # Susanne Aubergentis
			}
		}
	}

	female_hair_western_08 = { # Twin braids tied up on head
		dna_modifiers = {
			accessory = {
				mode = add
				gene = hairstyles
				template = scripted_character_hairstyles_01
				value = 0.21 # For the randomness to work correctly
			}
		}   
		weight = {
			base = 0
			modifier = {
				add = 200
				exists = character:20003 # Elwen Aubergentis
				this = character:20003 # Elwen Aubergentis
			}
		}
	}

	female_hair_western_09 = { # Chignon
		dna_modifiers = {
			accessory = {
				mode = add
				gene = hairstyles
				template = scripted_character_hairstyles_01
				value = 0.23 # For the randomness to work correctly
			}
		}   
		weight = {
			base = 0
		}
	}

	female_hair_western_10 = { # Big tail with ribbons
		dna_modifiers = {
			accessory = {
				mode = add
				gene = hairstyles
				template = scripted_character_hairstyles_01
				value = 0.26 # For the randomness to work correctly
			}
		}   
		weight = {
			base = 0
			modifier = {
				add = 200
				exists = character:19 # Istralania 'Warsinger'
				this = character:19 # Istralania 'Warsinger'
			}
		}
	}

	female_hair_mena_01 = { # Gold band and braids
		dna_modifiers = {
			accessory = {
				mode = add
				gene = hairstyles
				template = scripted_character_hairstyles_01
				value = 0.28 # For the randomness to work correctly
			}
		}   
		weight = {
			base = 0
		}
	}

	female_hair_mena_02 = { # Behind head long curly
		dna_modifiers = {
			accessory = {
				mode = add
				gene = hairstyles
				template = scripted_character_hairstyles_01
				value = 0.31 # For the randomness to work correctly
			}
		}   
		weight = {
			base = 0
		}
	}

	female_hair_byzantine_01 = { # Twin tails with spiral ribbons
		dna_modifiers = {
			accessory = {
				mode = add
				gene = hairstyles
				template = scripted_character_hairstyles_01
				value = 0.34 # For the randomness to work correctly
			}
		}   
		weight = {
			base = 0
		}
	}

	female_hair_byzantine_02 = { # Curly updo with earrings
		dna_modifiers = {
			accessory = {
				mode = add
				gene = hairstyles
				template = scripted_character_hairstyles_01
				value = 0.36 # For the randomness to work correctly
			}
		}   
		weight = {
			base = 0
		}
	}

	female_hair_sub_saharan_01 = { # Medium afro
		dna_modifiers = {
			accessory = {
				mode = add
				gene = hairstyles
				template = scripted_character_hairstyles_01
				value = 0.39 # For the randomness to work correctly
			}
		}   
		weight = {
			base = 0
		}
	}

	female_hair_sub_saharan_02 = { # Long Rasta braids
		dna_modifiers = {
			accessory = {
				mode = add
				gene = hairstyles
				template = scripted_character_hairstyles_01
				value = 0.42 # For the randomness to work correctly
			}
		}   
		weight = {
			base = 0
		}
	}

	female_hair_sub_saharan_03 = { # Short Rasta braids
		dna_modifiers = {
			accessory = {
				mode = add
				gene = hairstyles
				template = scripted_character_hairstyles_01
				value = 0.45 # For the randomness to work correctly
			}
		}   
		weight = {
			base = 0
		}
	}

	female_hair_rtt_01 = { # Milla
		dna_modifiers = {
			accessory = {
				mode = add
				gene = hairstyles
				template = scripted_character_hairstyles_01
				value = 0.49 # For the randomness to work correctly
			}
		}   
		weight = {
			base = 0
		}
	}

	female_hair_rtt_02 = { # Joan of Arc bob
		dna_modifiers = {
			accessory = {
				mode = add
				gene = hairstyles
				template = scripted_character_hairstyles_01
				value = 0.51 # For the randomness to work correctly
			}
		}   
		weight = {
			base = 0
		}
	}

	female_hair_rtt_03 = { # Milla gradient
		dna_modifiers = {
			accessory = {
				mode = add
				gene = hairstyles
				template = scripted_character_hairstyles_01
				value = 0.54 # For the randomness to work correctly
			}
		}   
		weight = {
			base = 0
		}
	}

	female_hair_indian_01 = { # Tight updo with jewelry
		dna_modifiers = {
			accessory = {
				mode = add
				gene = hairstyles
				template = scripted_character_hairstyles_01
				value = 0.57 # For the randomness to work correctly
			}
		}   
		weight = {
			base = 0
		}
	}

	female_hair_indian_02 = { # Braids with jewelry
		dna_modifiers = {
			accessory = {
				mode = add
				gene = hairstyles
				template = scripted_character_hairstyles_01
				value = 0.61 # For the randomness to work correctly
			}
		}   
		weight = {
			base = 0
		}
	}

	female_hair_indian_03 = { # Let out wavy with jewelry
		dna_modifiers = {
			accessory = {
				mode = add
				gene = hairstyles
				template = scripted_character_hairstyles_01
				value = 0.61 # For the randomness to work correctly
			}
		}   
		weight = {
			base = 0
		}
	}

	female_hair_northern_01 = { # Small braids and hair tied at neck
		dna_modifiers = {
			accessory = {
				mode = add
				gene = hairstyles
				template = scripted_character_hairstyles_01
				value = 0.66 # For the randomness to work correctly
			}
		}   
		weight = {
			base = 0
			modifier = {
				add = 200
				exists = character:71 # Lindelin Estallen
				this = character:71 # Lindelin Estallen
			}
		}
	}

	female_hair_northern_02 = { # Single tight braid
		dna_modifiers = {
			accessory = {
				mode = add
				gene = hairstyles
				template = scripted_character_hairstyles_01
				value = 0.69 # For the randomness to work correctly
			}
		}   
		weight = {
			base = 0
			modifier = {
				add = 200
				exists = character:102 # Novia of Esshyl
				this = character:102 # Novia of Esshyl
			}
		}
	}

	female_hair_northern_03 = { # Long straight
		dna_modifiers = {
			accessory = {
				mode = add
				gene = hairstyles
				template = scripted_character_hairstyles_01
				value = 0.73 # For the randomness to work correctly
			}
		}   
		weight = {
			base = 0
			modifier = {
				add = 200
				exists = character:73 # Leslin Leslinpár
				this = character:73 # Leslin Leslinpár
			}
		}
	}

	female_hair_steppe_01 = { # Twin braids with ribbons and earrings
		dna_modifiers = {
			accessory = {
				mode = add
				gene = hairstyles
				template = scripted_character_hairstyles_01
				value = 0.76 # For the randomness to work correctly
			}
		}   
		weight = {
			base = 0
		}
	}

	female_hair_steppe_02 = { # Tight with twin braids rolled up into two balls, earrings
		dna_modifiers = {
			accessory = {
				mode = add
				gene = hairstyles
				template = scripted_character_hairstyles_01
				value = 0.79 # For the randomness to work correctly
			}
		}   
		weight = {
			base = 0
		}
	}

	female_hair_fp1_01 = { # Let out but with smaller braids braided in
		dna_modifiers = {
			accessory = {
				mode = add
				gene = hairstyles
				template = scripted_character_hairstyles_01
				value = 0.83 # For the randomness to work correctly
			}
		}   
		weight = {
			base = 0
			modifier = {
				add = 200
				exists = character:aldegarde_0021 # Adelinde Aldegrade
				this = character:aldegarde_0021 # Adelinde Aldegrade
			}
		}
	}

	female_hair_fp1_02 = { # Very big loose braid on one shoulder
		dna_modifiers = {
			accessory = {
				mode = add
				gene = hairstyles
				template = scripted_character_hairstyles_01
				value = 0.86 # For the randomness to work correctly
			}
		}   
		weight = {
			base = 0
			modifier = {
				add = 200
				exists = character:300018
				this = character:300018
			}
		}
	}

	female_hair_fp1_03 = { # Pigtail braids
		dna_modifiers = {
			accessory = {
				mode = add
				gene = hairstyles
				template = scripted_character_hairstyles_01
				value = 0.90 # For the randomness to work correctly
			}
		}   
		weight = {
			base = 0
		}
	}

	female_hair_fp1_04 = { # Crown braid with ribbon
		dna_modifiers = {
			accessory = {
				mode = add
				gene = hairstyles
				template = scripted_character_hairstyles_01
				value = 0.92 # For the randomness to work correctly
			}
		}   
		weight = {
			base = 0
		}
	}

	female_hair_fp1_05 = { # Twin tails on chest, let out in back
		dna_modifiers = {
			accessory = {
				mode = add
				gene = hairstyles
				template = scripted_character_hairstyles_01
				value = 0.95 # For the randomness to work correctly
			}
		}   
		weight = {
			base = 0
		}
	}

	female_hair_fp1_06 = { # Let out fluffy straight
		dna_modifiers = {
			accessory = {
				mode = add
				gene = hairstyles
				template = scripted_character_hairstyles_01
				value = 0.98 # For the randomness to work correctly
			}
		}   
		weight = {
			base = 0
			modifier = {
				add = 200
				exists = character:300001
				this = character:300001
			}
		}
	}
}