#k_hasr
##d_hasr
###c_hasr
640 = {		#Hasr

    # Misc
    culture = surani
    religion = old_bulwari_sun_cult
	holding = castle_holding

    # History
}

###c_dazar_suran
641 = {		#Dazar Suran

    # Misc
    culture = surani
    religion = old_bulwari_sun_cult
	holding = castle_holding

    # History
}

###c_asranaz
638 = {		#Asranaz

    # Misc
    culture = surani
    religion = old_bulwari_sun_cult
	holding = castle_holding

    # History
}

###c_zankumar
639 = {		#Zankumar

    # Misc
    culture = surani
    religion = old_bulwari_sun_cult
	holding = castle_holding

    # History
}

##d_panuses
###c_panubar
635 = {		#Panubar

    # Misc
    culture = surani
    religion = old_bulwari_sun_cult
	holding = castle_holding

    # History
}

###c_utlazna
637 = {		#Utlazna

    # Misc
    culture = surani
    religion = old_bulwari_sun_cult
	holding = castle_holding

    # History
}

###c_durklum
636 = {		#Durklum

    # Misc
    culture = surani
    religion = old_bulwari_sun_cult
	holding = castle_holding

    # History
}

##d_eduz_vacyn
631 = {		#Eduz-Vacyn

    # Misc
    culture = surani
    religion = old_bulwari_sun_cult
	holding = castle_holding

    # History
}

###c_kufu
634 = {		#Kufu

    # Misc
    culture = surani
    religion = old_bulwari_sun_cult
	holding = castle_holding

    # History
}