﻿# Anbennar - mod-specific ones at the top of the list
special_genes = {


	accessory_genes = {


	#####################################
	#									#
	# 			  BEARDS 				#
	#									#
	#####################################

		
		beards = {
			group = beard


			#Anbennar - anbennar indexes start a 800. why? because most mods will probably use 100, 1000 or 9999. 800 is DAMERIA cos there's 8 lunar phases. This is also at the top to make patching easier
			dwarvish_beards_straight = {
				index = 200
				
				male = {
					10 = male_beard_rtt_01	# Wizard beard
					10 = male_beard_western_06	# Big bushy beard
					5 = male_beard_western_08 # Big with fancy mustache
					1 = male_beard_western_09 # Pointy beard
					5 = male_beard_mena_02	# Big with small mustache
					10 = male_beard_northern_01 # Big wide
					10 = male_beard_northern_02 # Single braid
					10 = male_beard_northern_03 # Beaded beard
					10 = male_beard_indian_03	# Big messy straight beard
					5 = male_beard_fp1_01 # Twin braids with metal rings
					1 = male_beard_fp1_02 # Short low beard
					10 = male_beard_fp1_03 # Wavy pointy beard
					10 = male_beard_fp1_04 # Huge braid
					20 = male_beard_fp1_05 # Long narrow wavy
				}
					
				female = {	#What? You were expecting beards?
					1 = empty
				}
			}

			dwarvish_beards_curly = {
				index = 201
				
				male = {
					10 = male_beard_rtt_01	# Wizard beard
					10 = male_beard_western_06	# Big bushy beard
					5 = male_beard_mena_02	# Big with small mustache
					10 = male_beard_fp1_03 # Wavy pointy beard
					20 = male_beard_fp1_05 # Long narrow wavy
				}
					
				female = {
					1 = empty
				}
			}
			
			vernman_beards_straight = {
				index = 202
				
				male = {
					20 = male_beard_indian_01
					5 = male_beard_steppe_01
					5 = male_beard_steppe_02
					10 = male_beard_mena_04
					10 = male_beard_western_08
					20 = male_beard_western_05
					1 = male_beard_fp1_04
				}
				
				female = {
					1 = empty
				}
			}

			vernman_beards_curly = {
				index = 203
				
				male = {
					20 = male_beard_indian_01
					20 = male_beard_western_05
					5 = male_beard_western_06
				}
				
				female = {
					1 = empty
				}
			}

			no_beard = {
				index = 0

				male = {
					1 = empty
				}
				female = {
					1 = empty
				}
			}	

			all_beards = {
				index = 1
				male = {
					1 = empty
					1 = male_beard_western_01
					1 = male_beard_western_02
					1 = male_beard_western_03
					1 = male_beard_western_04
					1 = male_beard_western_05
					1 = male_beard_western_06
					1 = male_beard_western_07
					1 = male_beard_western_08
					1 = male_beard_western_09
					1 = male_beard_mena_01
					1 = male_beard_mena_02
					1 = male_beard_mena_03
					1 = male_beard_mena_04
					1 = male_beard_northern_01
					1 = male_beard_northern_02
					1 = male_beard_northern_03
					1 = male_beard_steppe_01
					1 = male_beard_steppe_02
					1 = male_beard_sub_saharan_01
					1 = male_beard_sub_saharan_02
					1 = male_beard_sub_saharan_03		
					1 = male_beard_indian_01
					1 = male_beard_indian_02
					1 = male_beard_indian_03
					1 = male_beard_fp1_01 # Twin braids with metal rings
					1 = male_beard_fp1_02 # Short low beard
					1 = male_beard_fp1_03 # Wavy pointy beard
					1 = male_beard_fp1_04 # Huge braid
					1 = male_beard_fp1_05 # Long narrow wavy
					1 = male_beard_fp2_iberian_christian_01 # Short Well-Kept Beard
					1 = male_beard_fp2_iberian_christian_02 # Iberian goatee
					1 = male_beard_fp2_iberian_christian_03 # Caballero's beard
					1 = male_beard_fp2_iberian_christian_04 # Droopy moustache
					1 = male_beard_fp2_iberian_muslim_01 # Thick Groomed Beard
					1 = male_beard_fp2_iberian_muslim_02 # Scholar's beard
					1 = male_beard_fp2_iberian_muslim_03 # Forked beard
					1 = m_beard_ep2_western_01
					1 = m_beard_ep2_western_02
					1 = m_beard_ep2_western_03
					1 = m_beard_sp2_western_01 # The Ultimate Moustache 
				}
				female = {
					1 = empty
				}
			}	

			legacy_dna_beards = {
				index = 100
				male = {
					1 = empty
					1 = male_beard_western_01
					1 = male_beard_western_02
					1 = male_beard_western_03
					1 = male_beard_western_04
					1 = male_beard_western_05
					1 = male_beard_western_06
					1 = male_beard_western_07
					1 = male_beard_western_08
					1 = male_beard_western_09
					1 = male_beard_mena_01
					1 = male_beard_mena_02
					1 = male_beard_mena_03
					1 = male_beard_mena_04
					1 = male_beard_northern_01
					1 = male_beard_northern_02
					1 = male_beard_northern_03
					1 = male_beard_steppe_01
					1 = male_beard_steppe_02
					1 = male_beard_sub_saharan_01
					1 = male_beard_sub_saharan_02
					1 = male_beard_sub_saharan_03		
					1 = male_beard_indian_01
					1 = male_beard_indian_02
					1 = male_beard_indian_03
				}
				female = {
					1 = empty
				}
			}	

			western_beards_straight = {
				index = 2

				male = {
					# 30 = empty
					20 = male_beard_western_01 # Standard full beard
					10 = male_beard_western_02 # Standard goatee
					10 = male_beard_western_03 # Short beard
					5 = male_beard_western_04 # Short goatee
					5 = male_beard_western_05 # Mustache
					10 = male_beard_western_06 # Big bushy beard
					10 = male_beard_western_07 # Chin strap
					10 = male_beard_western_08 # Big with fancy mustache
					10 = male_beard_western_09 # Pointy beard
					10 = male_beard_western_10 # Chin goatee
					15 = male_beard_mena_04 # Short stylish
				}
				female = {
					1 = empty
				}
			}	

			western_beards_curly = {
				index = 3

				male = {
					# 30 = empty
					20 = male_beard_western_01 # Standard full beard
					10 = male_beard_western_02 # Standard goatee
					10 = male_beard_western_03 # Short beard
					5 = male_beard_western_04 # Short goatee
					5 = male_beard_western_05 # Mustache
					20 = male_beard_western_06 # Big bushy beard
					15 = male_beard_mena_04 # Short stylish
				}
				female = {
					1 = empty
				}
			}			

			mena_beards_straight = {
				index = 4

				male = {
					# 0 = empty
					5 = male_beard_western_01 # Standard full beard
					5 = male_beard_western_02 # Standard goatee
					5 = male_beard_western_03 # Short beard
					# 5 = male_beard_western_04
					# 20 = male_beard_mena_01
					20 = male_beard_mena_02 # Big with small mustache
					20 = male_beard_mena_03 # Big chin strap 
					20 = male_beard_mena_04 # Short stylish
				}
				female = {
					1 = empty
				}
			}	

			mena_beards_curly = {
				index = 5

				male = {
					# 0 = empty
					5 = male_beard_western_03 # Short beard
					20 = male_beard_mena_01 # Very curly medium length full beard
					20 = male_beard_mena_02 # Big with small mustache
					20 = male_beard_mena_03 # Big chin strap 
					
				}
				female = {
					1 = empty
				}
			}	


			northern_beards_straight = {
				index = 6

				male = {
					# 10 = empty
					5 = male_beard_western_01 # Standard full beard
					5 = male_beard_western_02 # Standard goatee
					5 = male_beard_western_03 # Short beard
					5 = male_beard_western_04 # Short goatee
					20 = male_beard_northern_01 # Big wide
					20 = male_beard_northern_02 # Single braid
					20 = male_beard_northern_03 # Beaded beard
					15 = male_beard_mena_04 # Short stylish

								
				}
				female = {
					1 = empty
				}
			}

			northern_beards_curly = {
				index = 7

				male = {
					# 10 = empty
					5 = male_beard_western_01 # Standard full beard
					5 = male_beard_western_02 # Standard goatee
					5 = male_beard_western_03 # Short beard
					10 = male_beard_western_04 # Short goatee
					10 = male_beard_western_06 # Big bushy beard
								
				}
				female = {
					1 = empty
				}
			}

			steppe_beards_straight = {
				index = 8

				male = {
					# 5 = empty
					#10 = male_beard_steppe_01 # low rough beard
					#10 = male_beard_steppe_02 # long at chin with mustache
					
					5 = male_beard_western_01 # Standard full beard
					5 = male_beard_western_02 # Standard goatee
					5 = male_beard_western_03 # Short beard
					5 = male_beard_western_04 # Short goatee
					5 = male_beard_western_07
					5 = male_beard_indian_02 # Indian pointy
					
				}
				female = {
					1 = empty
				}
			}

			steppe_beards_curly = {
				index = 9

				male = {
					# 5 = empty
					5 = male_beard_mena_01 # Very curly medium length full beard
					15 = male_beard_mena_04 # Short stylish
					5 = male_beard_western_04 # Short goatee
					
				}
				female = {
					1 = empty
				}
			}

			sub_saharan_beards_afro = {
				index = 10
				set_tags = "very_curly_hair"
				male = {
					# 30 = empty
					20 = male_beard_sub_saharan_01 # Full african beard medium
					20 = male_beard_sub_saharan_02 # Stylish african goatee
					10 = male_beard_sub_saharan_03 # Full african beard long		
					
				}
				female = {
					1 = empty
				}
			}

			indian_beards_straight = {
				index = 11

				male = {
					# 5 = empty
					20 = male_beard_indian_01 # Handlebar mustache
					10 = male_beard_indian_02 # Indian pointy
					10 = male_beard_indian_03 # Big messy straight beard
								
				}
				female = {
					1 = empty
				}
			}

			indian_beards_curly = {
				index = 12

				male = {
					# 5 = empty
					20 = male_beard_indian_01 # Handlebar mustache
					10 = male_beard_indian_02 # Indian pointy
					20 = male_beard_mena_01 # Very curly medium length full beard
					10 = male_beard_mena_02 # Big with small mustache
								
				}
				female = {
					1 = empty
				}
			}

			rtt_beards = {
				index = 13

				male = {
					1 = male_beard_rtt_01 # Wizard beard
				}
				female = {
					1 = empty
				}
			}

			fp1_beards_straight = {
				index = 14

				male = {
					# 10 = empty
					5 = male_beard_fp1_01 # Twin braids with metal rings
					5 = male_beard_fp1_02 # Short low beard
					5 = male_beard_fp1_03 # Wavy pointy beard
					5 = male_beard_fp1_04 # Huge braid
					5 = male_beard_fp1_05 # Long narrow wavy
					
								
				}
				female = {
					1 = empty
				}
			}

			fp1_beards_curly = {
				index = 15

				male = {
					# 10 = empty
					5 = male_beard_fp1_03 # Wavy pointy beard	
					5 = male_beard_fp1_05 # Long narrow wavy				
								
				}
				female = {
					1 = empty
				}
			}

			fp2_beards_straight = {
				index = 16

				male = {
					# 10 = empty
					5 = male_beard_fp2_iberian_christian_01 # Short Well-Kept Beard
					5 = male_beard_fp2_iberian_christian_02 # Iberian goatee
					5 = male_beard_fp2_iberian_christian_03 # Caballero's beard
					5 = male_beard_fp2_iberian_christian_04 # Droopy moustache
					5 = male_beard_fp2_iberian_muslim_01 # Thick Groomed Beard
					5 = male_beard_fp2_iberian_muslim_02 # Scholar's beard		
				}
				
				female = {
					1 = empty
				}
			}

			fp2_beards_curly = {
				index = 17

				male = {
					5 = male_beard_fp2_iberian_muslim_01 # Thick Groomed Beard
					5 = male_beard_fp2_iberian_christian_01 # Short Well-Kept Beard
					5 = male_beard_fp2_iberian_muslim_02 # Scholar's beard
					5 = male_beard_fp2_iberian_muslim_03 # Forked beard
					5 = male_beard_fp2_iberian_christian_03 # Caballero's beard
				}

				female = {
					1 = empty
				}
			}

			sp2_beards_straight = {
				index = 18

				male = {
					5 = m_beard_sp2_western_01	# The Ultimate Moustache	
				}

				female = {
					1 = empty
				}
			}


			ep2_beards = {
				index = 19

				male = {
					5 = m_beard_ep2_western_01 # Tidy short beard with slightly pointy mustache
					5 = m_beard_ep2_western_02 # Long flowy forked beard
					5 = m_beard_ep2_western_03 # Mustache from m_beard_ep2_western_01
				}

				female = {
					1 = empty
				}
			}

			scripted_character_beards_01 = { # THIS TEMPLATE SHOULD NOT BE CHANGED IN ANY WAY! If new beards are added for scripted characters they should be added in a new template.
				index = 20
				male = {
					1 = empty
					1 = male_beard_western_01
					1 = male_beard_western_02
					1 = male_beard_western_03
					1 = male_beard_western_04
					1 = male_beard_western_05
					1 = male_beard_western_06
					1 = male_beard_western_07
					1 = male_beard_western_08
					1 = male_beard_western_09
					1 = male_beard_western_10
					1 = male_beard_mena_01
					1 = male_beard_mena_02
					1 = male_beard_mena_03
					1 = male_beard_mena_04
					1 = male_beard_northern_01
					1 = male_beard_northern_02
					1 = male_beard_northern_03
					1 = male_beard_steppe_01
					1 = male_beard_steppe_02
					1 = male_beard_sub_saharan_01
					1 = male_beard_sub_saharan_02
					1 = male_beard_sub_saharan_03		
					1 = male_beard_indian_01
					1 = male_beard_indian_02
					1 = male_beard_indian_03
					1 = male_beard_fp1_01
					1 = male_beard_fp1_02
					1 = male_beard_fp1_03
					1 = male_beard_fp1_04
					1 = male_beard_fp1_05	
				}
				female = {
					1 = empty
				}
			}


			thin_beards_straight = {
				index = 21

				male = {
					# 5 = empty
					10 = male_beard_steppe_01 # low rough beard
					10 = male_beard_steppe_02 # long at chin with mustache
					
				}
				female = {
					1 = empty
				}
			}

			orthodox_beards = {
				index = 22
				male = {
					20 = male_beard_western_01 # Standard full beard
					5 = male_beard_western_02 # Standard goatee
					5 = male_beard_western_03 # Short beard
					10 = male_beard_western_06 # Big bushy beard
					5 = male_beard_western_07 # Chin strap
					20 = male_beard_western_08 # Big with fancy mustache
					10 = male_beard_western_09 # Pointy beard
					5 = male_beard_mena_04 # Short stylish
					10 = male_beard_mena_01 # Very curly medium length full beard
					10 = male_beard_mena_02 # Big with small mustache
				}
				female = {
					1 = empty
				}
			}
			scripted_character_beards_02 = {
				index = 23
				male = {
					1 = male_beard_fp2_iberian_christian_01 # Short Well-Kept Beard
					1 = male_beard_fp2_iberian_christian_02 # Iberian goatee
					1 = male_beard_fp2_iberian_christian_03 # Caballero's beard
					1 = male_beard_fp2_iberian_christian_04 # Droopy moustache
					1 = male_beard_fp2_iberian_muslim_01 # Thick Groomed Beard
					1 = male_beard_fp2_iberian_muslim_02 # Scholar's beard
					1 = male_beard_fp2_iberian_muslim_03 # Forked beard
					1 = no_beard

				}
				female = {
					1 = empty
				}
			}
		scripted_character_beards_03 = {
				index = 24
				male = {
					1 = m_beard_ep2_western_01
					1 = m_beard_ep2_western_02
					1 = m_beard_ep2_western_03

				}
				female = {
					1 = empty
				}
			}


		}

	}

}
